
 Absorption Cross-Sections for:  OCS  

  60.0746	Molecular Weight of Principal Isotope 

     Wavelength    Cross-Section
     (microns)       (cm**2) 

    1.95000E-01       1.93000E-20
    2.00000E-01       3.89000E-20
    2.05000E-01       8.09000E-20
    2.10000E-01       1.51000E-19
    2.15000E-01       2.36000E-19
    2.20000E-01       2.93000E-19
    2.25000E-01       3.09000E-19
    2.30000E-01       2.43000E-19
    2.35000E-01       1.53000E-19
    2.40000E-01       8.05000E-20
    2.45000E-01       3.80000E-20
    2.50000E-01       1.67000E-20
    2.55000E-01       6.38000E-21
    2.57500E-01       4.15000E-21
    2.62500E-01       1.62000E-21
    2.67500E-01       6.12000E-22
    2.72500E-01       2.34000E-22
    2.77500E-01       3.15000E-22
    2.82500E-01       3.60000E-22
    2.87500E-01       3.00000E-23
    2.92500E-01       5.00000E-24
    3.0000E-01        0.0000E+00  * fudged
    1.50000E+00       0.0000E+00  * fudged
