%!PS-Adobe-3.0
%%BoundingBox: 54 360 558 720
%%Title: Graphics produced by IDL
%%For: robinson@sprinkle.astro.washington.edu, 
%%      /astro/users/robinson/vpl/earth_model/smart_io/fixed_input/albedo
%%Creator: IDL Version 6.3 (linux x86_64 m64)
%%CreationDate: Tue May 12 15:45:20 2009
%%DocumentData: Clean7bit
%%LanguageLevel: 1
%%PageOrder: Ascend
%%Pages: (atend)
%%DocumentNeededResources: (atend)
%%EndComments
%%BeginProlog
save
%+ prolog.ps -- Prolog for IDL generated PostScript files
%+ Copyright (c) 1988-2006 Research Systems, Inc. All Rights Reserved.
%v 5
/$IDL_DICT 40 dict def $IDL_DICT begin /bdef { bind def } bind def /C
{currentpoint newpath moveto} bdef /CP {currentpoint} bdef /D {currentpoint
stroke moveto} bdef /F {closepath fill} bdef /K { setgray } bdef /M {moveto}
bdef /N {rmoveto} bdef /P {lineto} bdef /R {rlineto} bdef /S {gsave show
grestore} bdef /X {currentpoint pop} bdef /Z {gsave currentpoint lineto 20
setlinewidth 1 setlinecap stroke grestore} bdef /L0 {[] 0 setdash} bdef /L1
{[40 100] 0 setdash} bdef /L2 {[200 200] 0 setdash} bdef /L3 {[200 100 50
100] 0 setdash} bdef /L4 {[300 100 50 100 50 100 50 100] 0 setdash} bdef /L5
{[400 200] 0 setdash} bdef /STDFONT { findfont exch scalefont setfont } bdef
/ISOFONT { findfont dup length dict begin { 1 index /FID ne {def} {pop pop}
ifelse } forall /Encoding ISOLatin1Encoding def currentdict end /idltmpfont
exch definefont exch scalefont setfont } bdef /ISOBULLET { gsave /Helvetica
findfont exch scalefont setfont (\267) show currentpoint grestore moveto}
bdef /MITERLIMIT { 2.5 setmiterlimit } bdef end
%%EndProlog
%%Page: 0 1
%%PageResources: (atend)
%%PageOrientation: Portrait
%%PageBoundingBox: 54 360 558 720
%%BeginPageSetup
save
$IDL_DICT begin 54 360 translate 0.0283465 dup scale MITERLIMIT
%%IncludeResource: font Helvetica
423.333 /Helvetica STDFONT
%%EndPageSetup
20 setlinewidth L0 0.000 K 2220 1408 M 14894 0 R D 2220 1408 M 0 212 R D
10 setlinewidth 1922 984 M -52 -17 R -35 -53 R -18 -88 R 0 -52 R 18 -88 R
35 -52 R 52 -18 R 35 0 R 53 18 R 35 52 R 17 88 R 0 52 R -17 88 R -35 53 R
-53 17 R -35 0 R D 2203 651 M -18 -17 R 18 -18 R 17 18 R -17 17 R D
2378 984 M 193 0 R -106 -140 R 53 0 R 35 -18 R 18 -17 R 17 -53 R 0 -35 R
-17 -52 R -35 -35 R -53 -18 R -53 0 R -52 18 R -18 17 R -17 35 R D
20 setlinewidth 4348 1408 M 0 212 R D 10 setlinewidth 4050 984 M -53 -17 R
-35 -53 R -17 -88 R 0 -52 R 17 -88 R 35 -52 R 53 -18 R 35 0 R 52 18 R
36 52 R 17 88 R 0 52 R -17 88 R -36 53 R -52 17 R -35 0 R D 4330 651 M
-17 -17 R 17 -18 R 18 18 R -18 17 R D 4646 984 M -176 -245 R 263 0 R D
4646 984 M 0 -368 R D 20 setlinewidth 6476 1408 M 0 212 R D 10 setlinewidth
6178 984 M -53 -17 R -35 -53 R -18 -88 R 0 -52 R 18 -88 R 35 -52 R 53 -18 R
35 0 R 52 18 R 35 52 R 18 88 R 0 52 R -18 88 R -35 53 R -52 17 R -35 0 R D
6458 651 M -18 -17 R 18 -18 R 18 18 R -18 17 R D 6809 984 M -176 0 R
-17 -158 R 17 18 R 53 17 R 52 0 R 53 -17 R 35 -35 R 18 -53 R 0 -35 R
-18 -52 R -35 -35 R -53 -18 R -52 0 R -53 18 R -17 17 R -18 35 R D
20 setlinewidth 8603 1408 M 0 212 R D 10 setlinewidth 8305 984 M -52 -17 R
-35 -53 R -18 -88 R 0 -52 R 18 -88 R 35 -52 R 52 -18 R 35 0 R 53 18 R
35 52 R 17 88 R 0 52 R -17 88 R -35 53 R -53 17 R -35 0 R D 8586 651 M
-18 -17 R 18 -18 R 17 18 R -17 17 R D 8954 932 M -18 35 R -52 17 R -35 0 R
-53 -17 R -35 -53 R -18 -88 R 0 -87 R 18 -70 R 35 -35 R 53 -18 R 17 0 R
53 18 R 35 35 R 17 52 R 0 18 R -17 52 R -35 35 R -53 18 R -17 0 R -53 -18 R
-35 -35 R -18 -52 R D 20 setlinewidth 10731 1408 M 0 212 R D 10 setlinewidth
10433 984 M -53 -17 R -35 -53 R -17 -88 R 0 -52 R 17 -88 R 35 -52 R 53 -18 R
35 0 R 53 18 R 35 52 R 17 88 R 0 52 R -17 88 R -35 53 R -53 17 R -35 0 R D
10713 651 M -17 -17 R 17 -18 R 18 18 R -18 17 R D 11099 984 M -175 -368 R D
10854 984 M 245 0 R D 20 setlinewidth 12859 1408 M 0 212 R D 10 setlinewidth
12561 984 M -53 -17 R -35 -53 R -17 -88 R 0 -52 R 17 -88 R 35 -52 R 53 -18 R
35 0 R 52 18 R 35 52 R 18 88 R 0 52 R -18 88 R -35 53 R -52 17 R -35 0 R D
12841 651 M -17 -17 R 17 -18 R 18 18 R -18 17 R D 13069 984 M -53 -17 R
-17 -35 R 0 -36 R 17 -35 R 35 -17 R 71 -18 R 52 -17 R 35 -35 R 18 -35 R
0 -53 R -18 -35 R -17 -17 R -53 -18 R -70 0 R -53 18 R -17 17 R -18 35 R
0 53 R 18 35 R 35 35 R 53 17 R 70 18 R 35 17 R 17 35 R 0 36 R -17 35 R
-53 17 R -70 0 R D 20 setlinewidth 14986 1408 M 0 212 R D 10 setlinewidth
14688 984 M -52 -17 R -35 -53 R -18 -88 R 0 -52 R 18 -88 R 35 -52 R 52 -18 R
35 0 R 53 18 R 35 52 R 18 88 R 0 52 R -18 88 R -35 53 R -53 17 R -35 0 R D
14969 651 M -18 -17 R 18 -18 R 17 18 R -17 17 R D 15337 861 M -18 -52 R
-35 -35 R -52 -18 R -18 0 R -52 18 R -35 35 R -18 52 R 0 18 R 18 53 R
35 35 R 52 17 R 18 0 R 52 -17 R 35 -35 R 18 -71 R 0 -87 R -18 -88 R
-35 -52 R -52 -18 R -35 0 R -53 18 R -17 35 R D 20 setlinewidth 17114 1408 M
0 212 R D 10 setlinewidth 16764 914 M 35 18 R 52 52 R 0 -368 R D 17097 651 M
-18 -17 R 18 -18 R 17 18 R -17 17 R D 17342 984 M -53 -17 R -35 -53 R
-17 -88 R 0 -52 R 17 -88 R 35 -52 R 53 -18 R 35 0 R 53 18 R 35 52 R 17 88 R
0 52 R -17 88 R -35 53 R -53 17 R -35 0 R D 20 setlinewidth 2433 1408 M
0 106 R D 2646 1408 M 0 106 R D 2858 1408 M 0 106 R D 3071 1408 M 0 106 R D
3284 1408 M 0 106 R D 3497 1408 M 0 106 R D 3709 1408 M 0 106 R D
3922 1408 M 0 106 R D 4135 1408 M 0 106 R D 4561 1408 M 0 106 R D
4773 1408 M 0 106 R D 4986 1408 M 0 106 R D 5199 1408 M 0 106 R D
5412 1408 M 0 106 R D 5624 1408 M 0 106 R D 5837 1408 M 0 106 R D
6050 1408 M 0 106 R D 6263 1408 M 0 106 R D 6688 1408 M 0 106 R D
6901 1408 M 0 106 R D 7114 1408 M 0 106 R D 7327 1408 M 0 106 R D
7539 1408 M 0 106 R D 7752 1408 M 0 106 R D 7965 1408 M 0 106 R D
8178 1408 M 0 106 R D 8390 1408 M 0 106 R D 8816 1408 M 0 106 R D
9029 1408 M 0 106 R D 9242 1408 M 0 106 R D 9454 1408 M 0 106 R D
9667 1408 M 0 106 R D 9880 1408 M 0 106 R D 10093 1408 M 0 106 R D
10305 1408 M 0 106 R D 10518 1408 M 0 106 R D 10944 1408 M 0 106 R D
11156 1408 M 0 106 R D 11369 1408 M 0 106 R D 11582 1408 M 0 106 R D
11795 1408 M 0 106 R D 12008 1408 M 0 106 R D 12220 1408 M 0 106 R D
12433 1408 M 0 106 R D 12646 1408 M 0 106 R D 13071 1408 M 0 106 R D
13284 1408 M 0 106 R D 13497 1408 M 0 106 R D 13710 1408 M 0 106 R D
13923 1408 M 0 106 R D 14135 1408 M 0 106 R D 14348 1408 M 0 106 R D
14561 1408 M 0 106 R D 14774 1408 M 0 106 R D 15199 1408 M 0 106 R D
15412 1408 M 0 106 R D 15625 1408 M 0 106 R D 15837 1408 M 0 106 R D
16050 1408 M 0 106 R D 16263 1408 M 0 106 R D 16476 1408 M 0 106 R D
16689 1408 M 0 106 R D 16901 1408 M 0 106 R D 2220 11996 M 14894 0 R D
2220 11996 M 0 -212 R D 4348 11996 M 0 -212 R D 6476 11996 M 0 -212 R D
8603 11996 M 0 -212 R D 10731 11996 M 0 -212 R D 12859 11996 M 0 -212 R D
14986 11996 M 0 -212 R D 17114 11996 M 0 -212 R D 2433 11996 M 0 -106 R D
2646 11996 M 0 -106 R D 2858 11996 M 0 -106 R D 3071 11996 M 0 -106 R D
3284 11996 M 0 -106 R D 3497 11996 M 0 -106 R D 3709 11996 M 0 -106 R D
3922 11996 M 0 -106 R D 4135 11996 M 0 -106 R D 4561 11996 M 0 -106 R D
4773 11996 M 0 -106 R D 4986 11996 M 0 -106 R D 5199 11996 M 0 -106 R D
5412 11996 M 0 -106 R D 5624 11996 M 0 -106 R D 5837 11996 M 0 -106 R D
6050 11996 M 0 -106 R D 6263 11996 M 0 -106 R D 6688 11996 M 0 -106 R D
6901 11996 M 0 -106 R D 7114 11996 M 0 -106 R D 7327 11996 M 0 -106 R D
7539 11996 M 0 -106 R D 7752 11996 M 0 -106 R D 7965 11996 M 0 -106 R D
8178 11996 M 0 -106 R D 8390 11996 M 0 -106 R D 8816 11996 M 0 -106 R D
9029 11996 M 0 -106 R D 9242 11996 M 0 -106 R D 9454 11996 M 0 -106 R D
9667 11996 M 0 -106 R D 9880 11996 M 0 -106 R D 10093 11996 M 0 -106 R D
10305 11996 M 0 -106 R D 10518 11996 M 0 -106 R D 10944 11996 M 0 -106 R D
11156 11996 M 0 -106 R D 11369 11996 M 0 -106 R D 11582 11996 M 0 -106 R D
11795 11996 M 0 -106 R D 12008 11996 M 0 -106 R D 12220 11996 M 0 -106 R D
12433 11996 M 0 -106 R D 12646 11996 M 0 -106 R D 13071 11996 M 0 -106 R D
13284 11996 M 0 -106 R D 13497 11996 M 0 -106 R D 13710 11996 M 0 -106 R D
13923 11996 M 0 -106 R D 14135 11996 M 0 -106 R D 14348 11996 M 0 -106 R D
14561 11996 M 0 -106 R D 14774 11996 M 0 -106 R D 15199 11996 M 0 -106 R D
15412 11996 M 0 -106 R D 15625 11996 M 0 -106 R D 15837 11996 M 0 -106 R D
16050 11996 M 0 -106 R D 16263 11996 M 0 -106 R D 16476 11996 M 0 -106 R D
16689 11996 M 0 -106 R D 16901 11996 M 0 -106 R D 2220 1408 M 0 10588 R D
2220 1408 M 298 0 R D 10 setlinewidth 1317 1776 M -52 -17 R -35 -53 R
-18 -88 R 0 -52 R 18 -88 R 35 -52 R 52 -18 R 36 0 R 52 18 R 35 52 R 18 88 R
0 52 R -18 88 R -35 53 R -52 17 R -36 0 R D 1598 1443 M -18 -17 R 18 -18 R
17 18 R -17 17 R D 1843 1776 M -52 -17 R -35 -53 R -18 -88 R 0 -52 R
18 -88 R 35 -52 R 52 -18 R 35 0 R 53 18 R 35 52 R 17 88 R 0 52 R -17 88 R
-35 53 R -53 17 R -35 0 R D 20 setlinewidth 2220 3526 M 298 0 R D
10 setlinewidth 1317 3683 M -52 -18 R -35 -53 R -18 -87 R 0 -53 R 18 -87 R
35 -53 R 52 -18 R 36 0 R 52 18 R 35 53 R 18 87 R 0 53 R -18 87 R -35 53 R
-52 18 R -36 0 R D 1598 3350 M -18 -18 R 18 -18 R 17 18 R -17 18 R D
1756 3595 M 0 17 R 17 35 R 18 18 R 35 18 R 70 0 R 35 -18 R 17 -18 R 18 -35 R
0 -35 R -18 -35 R -35 -52 R -175 -176 R 245 0 R D 20 setlinewidth
2220 5643 M 298 0 R D 10 setlinewidth 1317 5800 M -52 -17 R -35 -53 R
-18 -88 R 0 -52 R 18 -88 R 35 -52 R 52 -18 R 36 0 R 52 18 R 35 52 R 18 88 R
0 52 R -18 88 R -35 53 R -52 17 R -36 0 R D 1598 5467 M -18 -17 R 18 -18 R
17 18 R -17 17 R D 1913 5800 M -175 -245 R 263 0 R D 1913 5800 M 0 -368 R D
20 setlinewidth 2220 7761 M 298 0 R D 10 setlinewidth 1317 7918 M -52 -18 R
-35 -52 R -18 -88 R 0 -53 R 18 -87 R 35 -53 R 52 -17 R 36 0 R 52 17 R
35 53 R 18 87 R 0 53 R -18 88 R -35 52 R -52 18 R -36 0 R D 1598 7585 M
-18 -18 R 18 -17 R 17 17 R -17 18 R D 1966 7865 M -18 35 R -52 18 R -35 0 R
-53 -18 R -35 -52 R -17 -88 R 0 -88 R 17 -70 R 35 -35 R 53 -17 R 17 0 R
53 17 R 35 35 R 17 53 R 0 17 R -17 53 R -35 35 R -53 18 R -17 0 R -53 -18 R
-35 -35 R -17 -53 R D 20 setlinewidth 2220 9878 M 298 0 R D 10 setlinewidth
1317 10035 M -52 -17 R -35 -53 R -18 -87 R 0 -53 R 18 -88 R 35 -52 R
52 -18 R 36 0 R 52 18 R 35 52 R 18 88 R 0 53 R -18 87 R -35 53 R -52 17 R
-36 0 R D 1598 9702 M -18 -17 R 18 -18 R 17 18 R -17 17 R D 1826 10035 M
-53 -17 R -17 -35 R 0 -35 R 17 -35 R 35 -18 R 70 -17 R 53 -18 R 35 -35 R
17 -35 R 0 -53 R -17 -35 R -18 -17 R -52 -18 R -70 0 R -53 18 R -17 17 R
-18 35 R 0 53 R 18 35 R 35 35 R 52 18 R 70 17 R 35 18 R 18 35 R 0 35 R
-18 35 R -52 17 R -70 0 R D 20 setlinewidth 2220 11996 M 298 0 R D
10 setlinewidth 1265 11924 M 35 18 R 53 53 R 0 -369 R D 1598 11662 M
-18 -18 R 18 -18 R 17 18 R -17 18 R D 1843 11995 M -52 -18 R -35 -53 R
-18 -87 R 0 -53 R 18 -87 R 35 -53 R 52 -18 R 35 0 R 53 18 R 35 53 R 17 87 R
0 53 R -17 87 R -35 53 R -53 18 R -35 0 R D 20 setlinewidth 2220 1937 M
149 0 R D 2220 2467 M 149 0 R D 2220 2996 M 149 0 R D 2220 4055 M 149 0 R D
2220 4584 M 149 0 R D 2220 5114 M 149 0 R D 2220 6173 M 149 0 R D
2220 6702 M 149 0 R D 2220 7231 M 149 0 R D 2220 8290 M 149 0 R D
2220 8820 M 149 0 R D 2220 9349 M 149 0 R D 2220 10408 M 149 0 R D
2220 10937 M 149 0 R D 2220 11467 M 149 0 R D 17114 1408 M 0 10588 R D
17114 1408 M -298 0 R D 17114 3526 M -298 0 R D 17114 5643 M -298 0 R D
17114 7761 M -298 0 R D 17114 9878 M -298 0 R D 17114 11996 M -298 0 R D
17114 1937 M -149 0 R D 17114 2467 M -149 0 R D 17114 2996 M -149 0 R D
17114 4055 M -149 0 R D 17114 4584 M -149 0 R D 17114 5114 M -149 0 R D
17114 6173 M -149 0 R D 17114 6702 M -149 0 R D 17114 7231 M -149 0 R D
17114 8290 M -149 0 R D 17114 8820 M -149 0 R D 17114 9349 M -149 0 R D
17114 10408 M -149 0 R D 17114 10937 M -149 0 R D 17114 11467 M -149 0 R D
10 setlinewidth 2220 11640 M 0 8 R 0 8 R 213 0 R 0 1 R 0 2 R 0 7 R 0 5 R
213 3 R 0 2 R 0 2 R 0 -6 R 0 12 R 212 -6 R 0 13 R 0 8 R 0 13 R 0 -9 R
213 11 R 0 -12 R 0 27 R 0 -3 R 0 -4 R 213 -8 R 0 13 R 0 -9 R 0 12 R 0 1 R
213 20 R 0 -40 R 0 33 R 0 -5 R 0 -6 R 212 5 R 0 11 R 0 -13 R 0 11 R 0 12 R
213 6 R 0 -9 R 0 4 R 0 24 R 0 -27 R 213 -10 R 0 29 R 0 -4 R 0 -10 R 0 18 R
213 -11 R 0 13 R 0 11 R 0 -15 R 0 7 R 213 0 R 0 1 R 0 4 R 0 10 R 0 -8 R
212 15 R 0 -5 R 0 12 R 0 -19 R 213 14 R 0 7 R 0 -9 R 0 7 R 0 17 R 213 -12 R
0 6 R 0 2 R 0 -6 R 0 9 R 213 5 R 0 -2 R 0 24 R 0 -16 R 0 -3 R 212 -2 R
0 19 R 0 -22 R 0 15 R 213 -7 R 0 13 R 0 -8 R 0 11 R 0 -27 R 213 24 R 0 -31 R
0 25 R 0 -7 R 213 -5 R 0 9 R 0 -7 R 0 3 R 213 -12 R 0 1 R 0 3 R 0 2 R 0 -3 R
212 -4 R 0 -3 R 0 -12 R 0 7 R 0 8 R 213 -7 R 0 -10 R 0 4 R 0 -2 R 0 20 R
213 -28 R 0 13 R 0 -14 R 0 6 R 0 -2 R 213 -3 R 0 -9 R 0 -1 R 0 3 R 0 -12 R
212 14 R 0 10 R 0 -3 R 0 -10 R 0 -8 R 213 -7 R 0 8 R 0 21 R 0 -10 R 0 -11 R
213 -6 R 0 3 R 0 -2 R 0 1 R 213 -13 R 0 18 R 0 -18 R 0 -6 R 0 -1 R 212 -7 R
0 1 R 0 -16 R 0 2 R 0 3 R 213 -4 R 0 -2 R 0 3 R 0 -34 R 0 12 R 213 4 R
0 -9 R 0 -15 R 0 -3 R 0 -4 R 213 8 R 0 -20 R 0 4 R 0 -12 R 0 -1 R 213 -8 R
0 -1 R 0 -22 R 0 18 R 0 -14 R 212 -6 R 0 -3 R 0 -6 R 0 -2 R 0 -9 R 213 -4 R
0 -14 R 0 1 R 0 -1 R 0 -191 R 213 178 R 0 -12 R 0 -13 R 0 4 R 0 -5 R
213 -21 R 0 16 R 0 -14 R 0 -9 R 212 -3 R 0 2 R 0 2 R 0 -15 R 0 1 R 213 -10 R
0 -10 R 0 -1 R 0 -8 R 0 -8 R 213 -7 R 0 -9 R 0 -13 R 0 -10 R 0 -5 R 213 -6 R
0 -11 R 0 -8 R 0 -11 R 0 -5 R 212 -6 R 0 -18 R 0 -4 R 0 -2 R 0 -3 R 213 -6 R
0 1 R 0 -3 R 0 -11 R 0 -4 R 213 -7 R 0 -9 R 0 -12 R 0 -4 R 0 -19 R 213 -5 R
0 -11 R 0 -19 R 0 -23 R 0 -2 R 213 -4 R 0 -14 R 0 -18 R 0 -16 R 0 -9 R
212 -14 R 0 -25 R 0 3 R 0 -16 R 0 -13 R 213 -34 R 0 3 R 0 -14 R 0 -10 R
0 -13 R 213 -15 R 0 -71 R 0 28 R 0 -4 R 0 -34 R 213 -17 R 0 25 R 0 -4 R
425 -23 R 426 -14 R 425 -180 R 426 -274 R 425 -158 R 426 -65 R 425 -114 R
426 -268 R 426 -381 R 425 -391 R D L1 17114 5458 M -85 -3 R -85 -31 R
-85 58 R -85 -27 R -85 -4 R -86 -14 R -85 -19 R -85 -72 R -85 34 R -85 29 R
-85 -20 R -85 -4 R -85 8 R -85 6 R -86 -12 R -85 -21 R -85 -2 R -85 10 R
-85 34 R -85 -37 R -85 -18 R -85 7 R -85 -5 R -86 7 R -85 -7 R -85 -24 R
-85 -17 R -85 1 R -85 10 R -85 -16 R -85 -7 R -85 6 R -85 9 R -86 -13 R
-85 -28 R -85 34 R -85 0 R -85 10 R -85 38 R -85 -4 R -85 -6 R -85 21 R
-86 -55 R -85 72 R -85 -17 R -85 1 R -85 -3 R -85 47 R -85 -8 R -85 21 R
-22 0 R -21 0 R -21 -45 R -21 56 R -22 -56 R -21 40 R -21 10 R -22 40 R
-21 -42 R -21 -3 R -21 1 R -22 7 R -21 8 R -21 -31 R -21 -12 R -22 34 R
-21 -13 R -21 -11 R -22 68 R -21 -9 R -21 -23 R -21 -22 R -22 -25 R -21 16 R
-21 -33 R -22 9 R -21 -31 R -21 -26 R -21 -6 R -22 66 R -21 -48 R -21 38 R
-21 -45 R -22 -12 R -21 5 R -21 -19 R -22 14 R -21 19 R -21 -4 R -21 -7 R
-22 35 R -21 -20 R -21 -73 R -22 -11 R -21 42 R -21 25 R -21 -67 R -22 24 R
-21 -15 R -21 55 R -21 -35 R -22 -49 R -21 1 R -21 -11 R -22 -1 R -21 -5 R
-21 9 R -21 3 R -22 3 R -21 -54 R -21 -16 R -22 18 R -21 -6 R -21 20 R
-21 5 R -22 -1 R -21 -22 R -21 -45 R -21 7 R -22 0 R -21 6 R -21 12 R
-22 -25 R -21 21 R -21 0 R -21 -16 R -22 -12 R -21 -7 R -21 25 R -22 -10 R
-21 -26 R -21 -29 R -21 0 R -22 -4 R -21 -12 R -21 -5 R -21 -14 R -22 -3 R
-21 9 R -21 15 R -22 -26 R -21 23 R -21 -1 R -21 -36 R -22 -22 R -21 -30 R
-21 20 R -21 -28 R -22 25 R -21 -5 R -21 119 R -22 -82 R -21 -13 R -21 -10 R
-21 26 R -22 -36 R -21 -41 R -21 -5 R -22 -53 R -21 -5 R -21 29 R -21 -31 R
-22 -16 R -21 -34 R -21 -26 R -21 45 R -22 5 R -21 20 R -21 -10 R -22 -34 R
-21 10 R -21 -14 R -21 3 R -22 11 R -21 -24 R -21 -15 R -22 -5 R -21 -46 R
-21 41 R -21 9 R -22 -20 R -21 -46 R -21 -34 R -21 20 R -22 3 R -21 -12 R
-21 12 R -22 15 R -21 -50 R -21 -26 R -21 15 R -22 -3 R -21 -24 R -21 23 R
-22 21 R -21 -1 R -21 -39 R -21 -41 R -22 20 R -21 -6 R -21 -6 R -21 -3 R
-22 0 R -21 -23 R -21 -34 R -22 -49 R -21 31 R -21 -18 R -21 14 R -22 45 R
-21 -58 R -21 -33 R -22 -36 R -21 12 R -21 24 R -21 -7 R -22 3 R -21 -3 R
-21 -28 R -21 -16 R -22 8 R -21 -18 R -21 5 R -22 -17 R -21 44 R -21 -11 R
-21 -55 R -22 39 R -21 -3 R -21 -44 R -22 -40 R -21 -22 R -21 37 R -21 -19 R
-22 -3 R -21 -28 R -21 2 R -21 0 R -22 29 R -21 -69 R -21 -29 R -22 -44 R
-21 4 R -21 11 R -21 -14 R -22 -3 R -21 -23 R -21 -6 R -21 -9 R -22 20 R
-21 7 R -21 -12 R -22 -20 R -21 6 R -21 -19 R -21 -19 R -22 13 R -21 0 R
-21 -20 R -22 -22 R -21 -19 R -21 -27 R -21 12 R -22 -47 R -21 -62 R
-21 65 R -21 -24 R -22 -50 R -21 -24 R -21 15 R -22 1 R -21 -47 R -21 -17 R
-21 -28 R -22 12 R -21 -54 R -21 -1 R -22 -32 R -21 -43 R -21 -10 R
-21 -50 R -22 -13 R -21 -23 R -21 7 R -21 -12 R -22 -63 R -21 -56 R
-21 -27 R -22 -48 R -21 -21 R -21 -60 R -21 -54 R -22 -16 R -21 -17 R
-21 -32 R -22 -54 R -21 3 R -21 -47 R -21 2 R -22 -5 R -21 -20 R -21 -27 R
-21 16 R -22 -27 R -21 -6 R -21 -28 R -22 -40 R -21 2 R -21 -53 R -21 -37 R
-22 -10 R -21 -4 R -21 -4 R -22 -30 R -21 -65 R -21 -17 R -21 -2 R -22 0 R
-21 11 R -21 -36 R -21 8 R -22 -28 R -21 -44 R -21 -48 R -22 -12 R -21 21 R
-21 -3 R -21 -36 R -22 -46 R -21 19 R -21 -4 R -21 -36 R -22 -9 R -21 -32 R
-21 16 R -22 -41 R -21 -4 R -21 -14 R -21 -2 R -22 -1 R -21 -28 R -21 -14 R
-22 -33 R -21 -19 R -21 13 R -21 -47 R -22 -4 R -21 -22 R -21 7 R -21 -14 R
-22 16 R -21 -47 R -21 -13 R -22 -39 R -21 -6 R -21 -10 R -21 18 R -22 -20 R
-21 -49 R -21 -9 R -22 -11 R -21 -2 R -21 -5 R -21 -10 R -22 -21 R -21 -15 R
-21 24 R -21 -32 R -22 -21 R -21 5 R -21 -27 R -22 1 R -21 -28 R -21 12 R
-21 -11 R -22 -21 R -21 -3 R -21 -43 R -22 15 R -21 -1 R -21 -16 R -21 -14 R
-22 -11 R -21 1 R -21 2 R -21 6 R -22 -12 R -21 -25 R -21 6 R -22 -51 R
-21 11 R -21 8 R -21 -6 R -22 -23 R -21 -7 R -21 -8 R -22 7 R -21 -50 R
-21 -20 R -21 7 R -22 -20 R -21 -20 R -21 -16 R -21 -41 R -22 -3 R -21 -26 R
-21 -11 R -22 -30 R -21 -13 R -21 5 R -21 -14 R -22 -17 R -21 -30 R
-21 -20 R -21 31 R -22 -24 R -21 0 R -21 -33 R -22 -35 R -42 -6 R D L2
2263 1826 M 42 1 R 43 2 R 42 1 R 43 1 R 42 2 R 43 1 R 43 1 R 42 2 R 43 1 R
42 1 R 43 2 R 42 1 R 43 1 R 42 2 R 43 1 R 43 1 R 42 2 R 43 1 R 42 1 R 43 2 R
42 1 R 43 1 R 42 2 R 43 1 R 43 1 R 42 1 R 43 2 R 42 1 R 43 2 R 42 1 R 43 1 R
42 1 R 43 2 R 42 1 R 43 1 R 43 2 R 42 1 R 43 1 R 42 2 R 43 1 R 42 1 R 43 2 R
42 1 R 43 1 R 43 2 R 42 1 R 43 1 R 42 2 R 43 1 R 42 1 R 43 2 R 42 1 R 43 1 R
43 1 R 42 2 R 43 1 R 42 1 R 43 1 R 42 2 R 43 1 R 42 1 R 43 2 R 43 1 R 42 1 R
43 1 R 42 2 R 43 1 R 42 1 R 43 1 R 42 2 R 43 1 R 43 1 R 42 2 R 43 1 R 42 1 R
43 1 R 42 2 R 43 1 R 42 1 R 43 2 R 43 1 R 42 1 R 43 1 R 42 2 R 43 1 R 42 1 R
43 1 R 42 2 R 43 1 R 43 1 R 42 2 R 43 2 R 42 4 R 43 6 R 42 7 R 43 9 R 42 8 R
43 11 R 43 14 R 42 18 R 43 22 R 42 26 R 43 36 R 42 33 R 43 34 R 42 47 R
43 40 R 43 37 R 42 43 R 43 34 R 42 31 R 43 29 R 42 29 R 43 15 R 42 16 R
43 7 R 42 7 R 43 7 R 43 2 R 42 -1 R 43 2 R 42 1 R 43 -3 R 42 -2 R 43 -6 R
42 -12 R 43 -10 R 43 -12 R 42 -23 R 43 -23 R 42 -24 R 43 -35 R 42 -32 R
43 -29 R 42 -27 R 43 -19 R 43 -22 R 42 -23 R 43 -21 R 42 -15 R 43 -15 R
42 -16 R 43 -10 R 42 -6 R 43 -6 R 43 -5 R 42 -1 R 43 1 R 42 1 R 43 -10 R
42 -17 R 43 -24 R 42 -17 R 43 -9 R 43 -5 R 42 -5 R 43 -11 R 42 -10 R 43 -5 R
42 -5 R 43 -6 R 42 -1 R 43 -2 R 43 -7 R 42 -4 R 43 -10 R 42 -15 R 43 -13 R
42 -12 R 43 -14 R 42 -12 R 43 -7 R 43 -7 R 42 -6 R 43 -5 R 42 -7 R 43 -14 R
42 -15 R 43 -3 R 42 -3 R 43 -8 R 43 -1 R 42 2 R 43 0 R 42 1 R 43 4 R 42 5 R
43 8 R 42 12 R 43 19 R 43 24 R 42 28 R 43 34 R 42 42 R 43 73 R 42 108 R
43 123 R 42 119 R 43 146 R 43 153 R 42 149 R 43 166 R 42 182 R 43 175 R
42 184 R 43 199 R 42 193 R 43 198 R 42 217 R 43 205 R 43 188 R 42 207 R
43 182 R 42 168 R 43 176 R 42 153 R 43 135 R 42 130 R 43 121 R 43 96 R
42 91 R 43 73 R 42 58 R 43 56 R 42 52 R 43 43 R 42 33 R 43 25 R 43 17 R
42 17 R 43 18 R 42 14 R 43 13 R 42 17 R 43 16 R 42 9 R 43 7 R 43 9 R 42 8 R
43 8 R 42 5 R 43 3 R 42 8 R 43 3 R 42 3 R 43 -1 R 43 -1 R 42 6 R 43 10 R
425 31 R 426 33 R 425 34 R 426 2 R 425 -15 R 426 -17 R 425 -109 R 426 -229 R
426 -22 R 425 80 R D L3 2220 1488 M 23 -4 R 86 76 R 85 20 R 85 7 R 85 -12 R
85 13 R 85 -10 R 85 5 R 85 -1 R 85 44 R 86 -12 R 85 -16 R 85 -2 R 85 42 R
85 6 R 74 -5 R 64 11 R 64 3 R 64 -1 R 64 -3 R 64 -11 R 63 26 R 54 -11 R
42 6 R 43 10 R 42 7 R 43 13 R 42 13 R 43 14 R 43 5 R 42 22 R 43 10 R 42 17 R
43 20 R 42 22 R 164 82 R 64 35 R 64 37 R 64 34 R 63 38 R 64 36 R 64 28 R
64 40 R 64 28 R 64 25 R 63 29 R 64 25 R 64 42 R 53 30 R 43 14 R 42 16 R
43 5 R 43 14 R 42 17 R 43 23 R 42 7 R 43 20 R 42 7 R 43 14 R 42 14 R 43 19 R
43 6 R 42 15 R 43 6 R 42 13 R 43 15 R 42 13 R 43 4 R 42 17 R 43 7 R 43 23 R
42 7 R 43 19 R 42 10 R 43 15 R 42 19 R 43 20 R 42 11 R 43 31 R 43 22 R
42 28 R 43 27 R 42 31 R 43 33 R 42 31 R 43 36 R 42 25 R 43 25 R 42 30 R
43 23 R 43 22 R 42 18 R 43 21 R 42 4 R 43 17 R 42 3 R 43 22 R 42 -2 R
43 21 R 43 -2 R 42 15 R 43 -4 R 42 4 R 43 10 R 42 -3 R 43 5 R 42 -16 R
43 2 R 43 -15 R 42 -6 R 43 -1 R 42 -11 R 43 17 R 42 -15 R 43 2 R 42 -4 R
43 14 R 43 2 R 42 -2 R 43 1 R 42 0 R 43 -2 R 42 9 R 39 6 R 34 0 R 34 13 R
34 -8 R 34 5 R 34 0 R 34 -5 R 34 6 R 34 5 R 34 1 R 34 -8 R 34 8 R 34 11 R
34 -9 R 34 4 R 34 12 R 34 -1 R 34 11 R 34 -3 R 39 8 R 42 5 R 43 0 R 42 7 R
43 -6 R 42 9 R 43 -4 R 43 7 R 42 -8 R 43 8 R 42 -10 R 43 9 R 42 6 R 43 3 R
42 3 R 43 -4 R 43 1 R 42 9 R 43 -8 R 53 4 R 64 -2 R 64 12 R 63 5 R 64 14 R
64 20 R 64 12 R 64 48 R 64 55 R 63 78 R 64 105 R 39 74 R 42 72 R 43 92 R
42 66 R 43 96 R 42 84 R 43 104 R 42 88 R 43 114 R 42 105 R 43 123 R 43 119 R
42 130 R 43 131 R 42 142 R 43 136 R 42 138 R 43 137 R 42 140 R 43 119 R
43 129 R 42 123 R 43 107 R 42 91 R 53 113 R 64 107 R 64 91 R 64 78 R 64 58 R
64 36 R 63 41 R 64 27 R 64 35 R 64 16 R 74 8 R 86 13 R 85 18 R 85 20 R
85 11 R 96 4 R 106 21 R 106 5 R 107 15 R 117 11 R 127 0 R 490 47 R 170 -20 R
255 -5 R 256 5 R 234 25 R 212 -14 R 213 -8 R 213 -1 R 192 -8 R 170 -39 R
170 -55 R 170 -73 R 149 -36 R 128 -1 R 127 -7 R 128 10 R 128 -5 R 127 17 R
128 25 R D L4 2220 3655 M 213 6 R 213 3 R 212 2 R 213 0 R 213 0 R 213 3 R
212 0 R 213 1 R 213 0 R 213 0 R 213 3 R 212 -2 R 213 3 R 213 -1 R 213 3 R
212 0 R 213 1 R 213 -1 R 213 -1 R 213 0 R 212 0 R 213 -1 R 213 1 R 213 -3 R
212 1 R 213 -1 R 213 -1 R 213 1 R 212 -1 R 213 -2 R 213 -2 R 213 -3 R
213 -1 R 212 -2 R 213 -2 R 213 -3 R 213 -1 R 212 -2 R 213 -1 R 213 -6 R
213 -2 R 212 -1 R 213 -2 R 213 -3 R 213 -4 R 213 -5 R 212 -5 R 213 -5 R
213 -5 R 213 -4 R 425 -2 R 426 -1 R 425 -14 R 426 -22 R 425 -10 R 426 -2 R
425 -11 R 426 -25 R 426 -22 R 425 -43 R D
%%PageTrailer
end
restore
showpage
%%PageResources: font Helvetica
%%Trailer
restore
%%Pages: 1
%%DocumentNeededResources: font Helvetica
%%EOF
