%!PS-Adobe-3.0
%%BoundingBox: 105 39 505 751
%%Title: Graphics produced by IDL
%%For: eschwiet@tormenta.astro.washington.edu, 
%%      /astro/users/eschwiet/modeling/photochem_smart/fixed_input/albedo
%%Creator: IDL Version 7.0 (linux x86_64 m64)
%%CreationDate: Thu Feb  6 14:53:55 2014
%%DocumentData: Clean7bit
%%Requirements: color
%%LanguageLevel: 1
%%PageOrder: Ascend
%%Pages: (atend)
%%DocumentNeededResources: (atend)
%%EndComments
%%BeginProlog
save
%+ prolog.ps -- Prolog for IDL generated PostScript files
%+ Copyright (c) 1988-2007 ITT Visual Information Solutions. All Rights Reserved.
%v 5
/$IDL_DICT 40 dict def $IDL_DICT begin /bdef { bind def } bind def /C
{currentpoint newpath moveto} bdef /CP {currentpoint} bdef /D {currentpoint
stroke moveto} bdef /F {closepath fill} bdef /K { setgray } bdef /M {moveto}
bdef /N {rmoveto} bdef /P {lineto} bdef /R {rlineto} bdef /S {gsave show
grestore} bdef /X {currentpoint pop} bdef /Z {gsave currentpoint lineto 20
setlinewidth 1 setlinecap stroke grestore} bdef /L0 {[] 0 setdash} bdef /L1
{[40 100] 0 setdash} bdef /L2 {[200 200] 0 setdash} bdef /L3 {[200 100 50
100] 0 setdash} bdef /L4 {[300 100 50 100 50 100 50 100] 0 setdash} bdef /L5
{[400 200] 0 setdash} bdef /STDFONT { findfont exch scalefont setfont } bdef
/ISOFONT { findfont dup length dict begin { 1 index /FID ne {def} {pop pop}
ifelse } forall /Encoding ISOLatin1Encoding def currentdict end /idltmpfont
exch definefont exch scalefont setfont } bdef /ISOBULLET { gsave /Helvetica
findfont exch scalefont setfont (\267) show currentpoint grestore moveto}
bdef /MITERLIMIT { 2.5 setmiterlimit } bdef end
%%EndProlog
%%Page: 0 1
180 rotate -612 -792 translate
%%PageRequirements: color
%%PageResources: (atend)
%%PageOrientation: Landscape
%%PageBoundingBox:   107   41  505  751
%%BeginPageSetup
save
$IDL_DICT begin 105 752 translate 0.0283465 dup scale 270 rotate MITERLIMIT
%%IncludeResource: font Helvetica
423.333 /Helvetica ISOFONT
%%EndPageSetup
0.000 0.000 0.000 setrgbcolor gsave 12573 12286 translate 0 0 M
1.5 dup scale -2258.48 0 N
(Albedo File Comparison) show grestore 30 setlinewidth L0 2664 2112 M
19818 0 R D 2664 2112 M 0 198 R D gsave 2664 1478 translate 0 0 M
1.2 dup scale -294.217 0 N
(0.0) show grestore 5967 2112 M 0 198 R D gsave 5967 1478 translate 0 0 M
1.2 dup scale -294.217 0 N
(0.5) show grestore 9270 2112 M 0 198 R D gsave 9270 1478 translate 0 0 M
1.2 dup scale -294.217 0 N
(1.0) show grestore 12573 2112 M 0 198 R D gsave 12573 1478 translate 0 0 M
1.2 dup scale -294.217 0 N
(1.5) show grestore 15876 2112 M 0 198 R D gsave 15876 1478 translate 0 0 M
1.2 dup scale -294.217 0 N
(2.0) show grestore 19179 2112 M 0 198 R D gsave 19179 1478 translate 0 0 M
1.2 dup scale -294.217 0 N
(2.5) show grestore 22482 2112 M 0 198 R D gsave 22482 1478 translate 0 0 M
1.2 dup scale -294.217 0 N
(3.0) show grestore 3325 2112 M 0 99 R D 3985 2112 M 0 99 R D 4646 2112 M
0 99 R D 5307 2112 M 0 99 R D 6628 2112 M 0 99 R D 7288 2112 M 0 99 R D
7949 2112 M 0 99 R D 8610 2112 M 0 99 R D 9931 2112 M 0 99 R D 10591 2112 M
0 99 R D 11252 2112 M 0 99 R D 11913 2112 M 0 99 R D 13234 2112 M 0 99 R D
13894 2112 M 0 99 R D 14555 2112 M 0 99 R D 15216 2112 M 0 99 R D
16537 2112 M 0 99 R D 17197 2112 M 0 99 R D 17858 2112 M 0 99 R D
18519 2112 M 0 99 R D 19840 2112 M 0 99 R D 20500 2112 M 0 99 R D
21161 2112 M 0 99 R D 21822 2112 M 0 99 R D gsave 12573 929 translate 0 0 M
1.2 dup scale -1549.61 0 N
(Wavelength [) show
%%IncludeResource: font Symbol
423.333 /Symbol STDFONT
(m) show
%%IncludeResource: font Helvetica
423.333 /Helvetica ISOFONT
(m]) show grestore 2664 12032 M 19818 0 R D 2664 12032 M 0 -198 R D
5967 12032 M 0 -198 R D 9270 12032 M 0 -198 R D 12573 12032 M 0 -198 R D
15876 12032 M 0 -198 R D 19179 12032 M 0 -198 R D 22482 12032 M 0 -198 R D
3325 12032 M 0 -99 R D 3985 12032 M 0 -99 R D 4646 12032 M 0 -99 R D
5307 12032 M 0 -99 R D 6628 12032 M 0 -99 R D 7288 12032 M 0 -99 R D
7949 12032 M 0 -99 R D 8610 12032 M 0 -99 R D 9931 12032 M 0 -99 R D
10591 12032 M 0 -99 R D 11252 12032 M 0 -99 R D 11913 12032 M 0 -99 R D
13234 12032 M 0 -99 R D 13894 12032 M 0 -99 R D 14555 12032 M 0 -99 R D
15216 12032 M 0 -99 R D 16537 12032 M 0 -99 R D 17197 12032 M 0 -99 R D
17858 12032 M 0 -99 R D 18519 12032 M 0 -99 R D 19840 12032 M 0 -99 R D
20500 12032 M 0 -99 R D 21161 12032 M 0 -99 R D 21822 12032 M 0 -99 R D
2664 2112 M 0 9920 R D 2664 2112 M 396 0 R D gsave 2531 2112 translate 0 0 M
1.2 dup scale -588.433 0 N
(0.0) show grestore 2664 4592 M 396 0 R D gsave 2531 4423 translate 0 0 M
1.2 dup scale -588.433 0 N
(0.1) show grestore 2664 7072 M 396 0 R D gsave 2531 6903 translate 0 0 M
1.2 dup scale -588.433 0 N
(0.2) show grestore 2664 9552 M 396 0 R D gsave 2531 9383 translate 0 0 M
1.2 dup scale -588.433 0 N
(0.3) show grestore 2664 12032 M 396 0 R D gsave 2531 11736 translate 0 0 M
1.2 dup scale -588.433 0 N
(0.4) show grestore 2664 2360 M 198 0 R D 2664 2608 M 198 0 R D 2664 2856 M
198 0 R D 2664 3104 M 198 0 R D 2664 3352 M 198 0 R D 2664 3600 M 198 0 R D
2664 3848 M 198 0 R D 2664 4096 M 198 0 R D 2664 4344 M 198 0 R D
2664 4840 M 198 0 R D 2664 5088 M 198 0 R D 2664 5336 M 198 0 R D
2664 5584 M 198 0 R D 2664 5832 M 198 0 R D 2664 6080 M 198 0 R D
2664 6328 M 198 0 R D 2664 6576 M 198 0 R D 2664 6824 M 198 0 R D
2664 7320 M 198 0 R D 2664 7568 M 198 0 R D 2664 7816 M 198 0 R D
2664 8064 M 198 0 R D 2664 8312 M 198 0 R D 2664 8560 M 198 0 R D
2664 8808 M 198 0 R D 2664 9056 M 198 0 R D 2664 9304 M 198 0 R D
2664 9800 M 198 0 R D 2664 10048 M 198 0 R D 2664 10296 M 198 0 R D
2664 10544 M 198 0 R D 2664 10792 M 198 0 R D 2664 11040 M 198 0 R D
2664 11288 M 198 0 R D 2664 11536 M 198 0 R D 2664 11784 M 198 0 R D
gsave 1425 7072 translate 0 0 M 90 rotate 1.2 dup scale -764.752 0 N
(Albedos) show grestore 22482 2112 M 0 9920 R D 22482 2112 M -396 0 R D
22482 4592 M -396 0 R D 22482 7072 M -396 0 R D 22482 9552 M -396 0 R D
22482 12032 M -396 0 R D 22482 2360 M -198 0 R D 22482 2608 M -198 0 R D
22482 2856 M -198 0 R D 22482 3104 M -198 0 R D 22482 3352 M -198 0 R D
22482 3600 M -198 0 R D 22482 3848 M -198 0 R D 22482 4096 M -198 0 R D
22482 4344 M -198 0 R D 22482 4840 M -198 0 R D 22482 5088 M -198 0 R D
22482 5336 M -198 0 R D 22482 5584 M -198 0 R D 22482 5832 M -198 0 R D
22482 6080 M -198 0 R D 22482 6328 M -198 0 R D 22482 6576 M -198 0 R D
22482 6824 M -198 0 R D 22482 7320 M -198 0 R D 22482 7568 M -198 0 R D
22482 7816 M -198 0 R D 22482 8064 M -198 0 R D 22482 8312 M -198 0 R D
22482 8560 M -198 0 R D 22482 8808 M -198 0 R D 22482 9056 M -198 0 R D
22482 9304 M -198 0 R D 22482 9800 M -198 0 R D 22482 10048 M -198 0 R D
22482 10296 M -198 0 R D 22482 10544 M -198 0 R D 22482 10792 M -198 0 R D
22482 11040 M -198 0 R D 22482 11288 M -198 0 R D 22482 11536 M -198 0 R D
22482 11784 M -198 0 R D 40 setlinewidth 3853 2137 M 66 223 R 66 2232 R
165 2480 R 166 1240 R 165 1240 R 165 0 R 165 -496 R 165 -496 R 165 -496 R
166 -620 R 165 -620 R 165 -744 R 165 -496 R 165 -496 R 165 -620 R 165 -298 R
166 -124 R 165 -148 R 165 -58 R 165 -5 R 165 0 R 165 0 R 165 -4 R 166 0 R
165 0 R 165 -5 R 165 0 R 165 0 R 165 -4 R 166 0 R 165 0 R 165 -4 R 165 0 R
165 0 R 1321 -14 R 1322 -13 R 1321 -18 R 1321 -22 R 1321 -27 R 1321 -45 R
1322 -75 R 1321 -166 R 330 -102 R 330 -135 R 331 -82 R 330 121 R 330 337 R
331 527 R 330 349 R 330 119 R D L2 4072 3006 M 53 0 R 53 0 R 46 0 R 39 0 R
40 0 R 36 0 R 33 0 R 33 0 R 33 0 R 30 0 R 27 0 R 26 0 R 26 0 R 27 0 R 26 0 R
27 3 R 26 11 R 27 11 R 26 11 R 26 11 R 27 10 R 26 11 R 27 11 R 26 11 R
27 12 R 26 11 R 26 11 R 27 11 R 26 12 R 27 11 R 26 12 R 23 10 R 20 9 R
20 9 R 20 8 R 20 9 R 19 9 R 20 9 R 17 8 R 13 6 R 13 6 R 13 6 R 14 6 R 13 6 R
13 6 R 13 6 R 13 7 R 14 6 R 13 6 R 13 6 R 13 5 R 13 2 R 14 -1 R 13 -2 R
11 0 R 20 -2 R 20 -7 R 20 -6 R 19 -7 R 20 -7 R 20 -9 R 20 -14 R 20 -13 R
19 -12 R 20 -15 R 20 -13 R 20 -11 R 16 -8 R 14 -3 R 13 0 R 13 -3 R 13 -5 R
13 -3 R 14 -1 R 13 -3 R 13 -4 R 13 -5 R 14 -7 R 13 -7 R 13 -9 R 13 -7 R
13 -8 R 14 -8 R 13 -10 R 13 -12 R 13 -14 R 13 -15 R 14 -16 R 13 -17 R
13 -18 R 13 -18 R 14 -19 R 13 -20 R 13 -21 R 13 -19 R 13 -17 R 14 -17 R
13 -14 R 13 -13 R 13 -10 R 13 -9 R 14 -7 R 13 -6 R 13 -6 R 13 -5 R 13 -5 R
14 -5 R 13 -5 R 13 -5 R 13 -6 R 14 -5 R 13 -5 R 13 -5 R 13 -6 R 13 -5 R
14 -6 R 13 -4 R 13 -5 R 13 -5 R 13 -5 R 14 -4 R 13 -4 R 13 -4 R 13 -4 R
13 -3 R 14 -5 R 13 -4 R 13 -5 R 13 -5 R 14 -5 R 13 -5 R 13 -5 R 13 -5 R
13 -5 R 14 -5 R 13 -5 R 13 -4 R 13 -5 R 13 -4 R 14 -4 R 13 -3 R 13 -3 R
12 -2 R 11 -2 R 10 -2 R 11 -1 R 10 -1 R 11 -1 R 10 -1 R 11 0 R 11 0 R
10 -1 R 11 -1 R 10 0 R 11 -1 R 10 0 R 11 0 R 11 -1 R 10 0 R 11 -1 R 10 0 R
12 0 R 13 -1 R 14 0 R 13 -1 R 13 0 R 13 0 R 13 0 R 14 -1 R 13 0 R 13 -1 R
13 0 R 13 -1 R 14 -1 R 13 0 R 13 0 R 13 0 R 14 -1 R 13 0 R 13 0 R 16 0 R
20 -1 R 20 0 R 20 -1 R 20 0 R 20 -1 R 19 0 R 20 -1 R 20 -1 R 20 0 R 20 -1 R
12 -1 R 13 0 R 13 -1 R 13 0 R 13 0 R 14 -1 R 13 0 R 13 -1 R 13 0 R 13 -1 R
14 0 R 13 -1 R 13 0 R 13 -1 R 14 -1 R 13 0 R 13 0 R 13 0 R 13 0 R 14 -1 R
13 0 R 13 0 R 13 0 R 13 0 R 17 -1 R 20 0 R 20 0 R 19 0 R 20 0 R 20 0 R
20 0 R 20 -1 R 19 0 R 20 0 R 23 0 R 27 -1 R 26 0 R 27 0 R 26 -1 R 30 0 R
33 0 R 33 0 R 33 0 R 36 0 R 40 -1 R 46 0 R 53 -1 R 53 0 R 53 0 R 79 1 R
79 1 R 73 0 R 66 0 R 66 0 R 66 -1 R 60 0 R 52 -1 R 53 0 R 53 0 R 46 0 R
40 0 R 40 0 R 39 -1 R 40 -1 R 39 0 R 40 -1 R 40 0 R 39 -1 R 40 0 R 36 -1 R
33 0 R 33 0 R 33 0 R 33 0 R 34 0 R 33 0 R 33 0 R 33 0 R 33 -1 R 33 0 R
33 0 R 33 -1 R 33 0 R 33 0 R 33 -1 R 33 0 R 33 0 R 33 0 R 33 -1 R 33 0 R
33 0 R 33 0 R 33 0 R 33 0 R 33 0 R 33 0 R 33 0 R 33 -1 R 33 0 R 33 0 R
33 0 R 33 0 R 33 0 R 33 0 R 33 0 R 33 -1 R 33 0 R 34 0 R 33 0 R 33 -1 R
33 0 R 33 0 R 33 -1 R 33 0 R 33 0 R 33 0 R 33 0 R 33 0 R 33 0 R 33 -1 R
33 0 R 33 0 R 33 -1 R 33 0 R 33 0 R 33 -1 R 33 0 R 33 -1 R 33 0 R 33 0 R
33 0 R 33 -1 R 33 0 R 33 0 R 33 0 R 33 0 R 33 0 R 33 0 R 33 0 R 33 0 R
33 0 R 34 0 R 33 0 R 33 0 R 33 0 R 33 0 R 33 0 R 33 -1 R 33 0 R 33 0 R
33 0 R 33 -1 R 33 0 R 33 0 R 33 -1 R 33 0 R 33 0 R 33 0 R 33 -1 R 33 0 R
33 0 R 33 0 R 33 -1 R 33 0 R 33 0 R 33 0 R 33 -1 R 33 0 R 33 0 R 33 0 R
33 0 R 37 -1 R 39 0 R 40 0 R 40 -1 R 39 0 R 40 -1 R 43 0 R 46 -1 R 46 0 R
47 0 R 46 0 R 46 0 R 46 1 R 47 0 R 46 0 R 46 1 R 46 -1 R 47 -1 R 46 -1 R
46 -2 R 46 -1 R 50 0 R 53 0 R 52 1 R 53 0 R 53 0 R 53 0 R 53 0 R 53 -1 R
53 0 R 52 -1 R 53 -1 R 53 -1 R 53 -1 R 53 -1 R 53 0 R 53 -1 R 59 -1 R 66 0 R
66 -1 R 66 0 R 66 -1 R 66 0 R 66 -1 R 66 -1 R 66 -1 R 66 -1 R 67 -2 R
66 -1 R 66 -2 R 66 -1 R 66 0 R 66 0 R 66 -1 R 66 -2 R 66 -1 R 66 -2 R
66 -2 R 66 -1 R 66 -1 R 66 -1 R 66 -1 R 66 0 R 67 -1 R 66 -1 R 66 -1 R
66 -1 R 66 -2 R 66 -2 R 66 -2 R 66 -2 R 66 -2 R 66 -1 R 66 -2 R 66 -1 R
66 -1 R 66 -2 R 66 -2 R 66 -2 R 66 -2 R 67 -1 R 66 -1 R 66 -1 R 66 -2 R
66 -2 R 66 -2 R 66 -2 R 66 -2 R 66 -1 R 66 -2 R 66 -2 R 66 -2 R 66 -3 R
66 -2 R 66 -4 R 73 -3 R 93 -3 R 118 -3 R 146 -6 R 172 -18 R 198 -35 R
211 -44 R 211 -42 R 212 -38 R 211 -41 R 212 -35 R 211 -3 R 211 -1 R 212 0 R
211 0 R 212 0 R 211 0 R 211 0 R 212 0 R 211 0 R 212 0 R D L0
0.000 0.000 0.000 setrgbcolor 13053 9172 M 2301 0 R D
0.000 0.000 0.000 setrgbcolor gsave 15674 9045 translate 0 0 M 1.2 dup scale
(ocean.alb) show grestore L2 0.000 0.000 0.000 setrgbcolor 13053 8665 M
2301 0 R D 0.000 0.000 0.000 setrgbcolor gsave 15674 8538 translate 0 0 M
1.2 dup scale
(seawater.alb) show grestore L0 0.000 0.000 0.000 setrgbcolor 12573 9552 M
6140 0 R 0 -1267 R -6140 0 R 0 1267 R 6140 0 R D
%%PageTrailer
end
restore
showpage
%%PageResources: font Helvetica
%%+ font Symbol
%%Trailer
restore
%%Pages: 1
%%DocumentNeededResources: font Helvetica
%%+ font Symbol
%%EOF
